[
    {
        "model": "looper.gateway",
        "pk": 1,
        "fields": {
            "name": "mock",
            "is_default": true,
            "frontend_name": "Disfunctional Mockert"
        }
    }
]
